{
  "missing": "000000",
  "underflow": "757575",
  "overflow": "8f501d",
  "colors":
  [
    "757575",
    "757575",
    "4c4c4c",
    "4c4c4c",
    "411003",
    "411003",
    "631c21",
    "b7545d",
    "cf7fb4",
    "8a5679",
    "8e81b2",
    "615878",
    "a2f9f7",
    "6da7a7",
    "69b340",
    "69b340",
    "90f939",
    "90f939",
    "fdfd3d",
    "a2a227",
    "e17f2d",
    "8f501d"
  ],
  "values":
  [
    -2.000,
    -1.001,
    -1.000,
    -0.501,
    -0.500,
    -0.001,
     0.000,
     0.999,
     1.000,
     1.499,
     1.500,
     1.999,
     2.000,
     2.499,
     2.500,
     2.999,
     3.000,
     3.999,
     4.000,
     4.999,
     5.000,
     7.000
  ]
}
