{
  "missing": "000000",
  "underflow": "000000",
  "overflow": "ffffff",
  "colors":
  [
    "483d8b",
    "061b6d",
    "34941f",
    "ffff00",
    "ffa200",
    "ff1700",
    "de00eb"
  ],
  "values":
  [
    0.00,
    0.15,
    0.27,
    0.45,
    0.60,
    0.77,
    1.00
  ]
}
