{
  "missing": "000000",
  "underflow": "000000",
  "overflow": "fefdfe",
  "colors":
  [
    "000000",
    "424242",
    "c6c6c6",
    "8477af",
    "5f5389",
    "0a1494",
    "5a92cd",
    "74c3b1",
    "7ed53b",
    "fefc6d",
    "e59650",
    "b9341a",
    "6d1e0a",
    "dd8abc",
    "fefdfe"
  ],
  "values":
  [
    -6.000,
    -3.000,
    -0.001,
     0.000,
     0.249,
     0.250,
     0.999,
     1.000,
     1.999,
     2.000,
     2.999,
     3.000,
     4.999,
     5.000,
     6.000
  ]
}
